[
    { "ParameterKey": "Environment", "ParameterValue": "dev" },
    { "ParameterKey": "VpcId", "ParameterValue": "vpc-92ff33ef" },
    { "ParameterKey": "PrivateSubnetId", "ParameterValue": "subnet-8dfa44ac" },
    { "ParameterKey": "AmiId", "ParameterValue": "ami-04ad2567c9e3d7893" },
    { "ParameterKey": "InstanceSize", "ParameterValue": "t3.medium" }
]